name,bib,team,status
Alan Parkinson,60,bekki,rookie
Patrick Miette,32,bekki,rookie
Torsten Frank,209,bekki,rookie
Sam Thomas,20,bekki,rookie
Arnoldas Jakstas,134,bekki,rookie
Niall Cooling,19,harry,rookie
Michal Plech,57,harry,rookie
Ralf Hemmann,38,harry,rookie
Bastiaan Vlaskamp,64,harry,rookie
Stephane Ouaja,12,harry,rookie
Denis Uzdiaev,163,jack,rookie
Arjan Zwanenburg,160,jack,rookie
Thomas Dupin,157,jack,rookie
Matt Mills,178,jack,rookie
Sanne Kleijne,16,jack,rookie
Matthew Swain,156,modge,rookie
Josh Cunningham,98,modge,rookie
Stefan Slegl,140,modge,rookie
Sjoerd Witjes,222,modge,rookie
Saulius Vizbaras,116,modge,rookie
Hermann Dopfer,28,rich,rookie
Avni Berk Okyay,55,rich,rookie
Lee Grieve,229,rich,rookie
Lo__c Nys Taymans,17,rich,rookie
Eric Spencer,119,rich,rookie
